<svg xmlns="http://www.w3.org/2000/svg" viewBox="476 117 29.512 27.728">
  <defs>
    <style>
      .cls-1 {
        fill: #fff;
      }
    </style>
  </defs>
  <g id="Group_20" data-name="Group 20" transform="translate(476 116.995)">
    <path id="Path_1" data-name="Path 1" class="cls-1" d="M19.62,19.528l2.27-2.27A10.1,10.1,0,1,0,4.632,9.8a10.159,10.159,0,0,0,2.952,7.458l2.27,2.27C4.864,19.981,0,21.246,0,23.516c0,2.758,7.428,4.217,14.756,4.217s14.756-1.459,14.756-4.217C29.512,21.246,24.648,19.981,19.62,19.528ZM5.969,9.83A8.679,8.679,0,0,1,8.951,3.507,8.791,8.791,0,0,1,20.98,16.317l-5.771,5.8a.626.626,0,0,1-.907,0L8.528,16.348A8.62,8.62,0,0,1,5.969,9.83Zm8.787,16.6C5.9,26.434,1.3,24.522,1.3,23.516c0-.747,2.887-2.335,9.793-2.788l2.3,2.3a1.923,1.923,0,0,0,1.364.583,1.872,1.872,0,0,0,1.364-.583l2.3-2.3c6.91.488,9.793,2.042,9.793,2.788C28.217,24.556,23.612,26.434,14.756,26.434Z"/>
    <path id="Path_2" data-name="Path 2" class="cls-1" d="M35.5,21.641a3.531,3.531,0,1,0-4.994-4.994,3.531,3.531,0,0,0,0,5A3.534,3.534,0,0,0,33,22.681,3.687,3.687,0,0,0,35.5,21.641ZM31.413,20.7a2.2,2.2,0,0,1-.648-1.588A2.211,2.211,0,0,1,33,16.876a2.326,2.326,0,0,1,1.588.648A2.246,2.246,0,0,1,31.413,20.7Z" transform="translate(-18.245 -9.67)"/>
  </g>
</svg>
